no_urut,nim,nama,kelas,gender,tanggal_lahir,tempat_lahir,alamat,sekolah_asal,nm_ibu,nm_bapak,pkjr_ibu,pkjr_bapak,nm_wali,pkjr_wali,alamat_wali,no_telp,no_kk,file_kk,ijazah,file_ijazah,nisn,nik,riwayat_penyakit,abk,no_skhu,kd_agama,foto,id_rombel
,18318,Adnan Firdaus,7A,L,2005-01-03,Tanah Laut,Jl.  H. Boeyasin,,Latifah,Juriansyah,Tidak bekerja,Nelayan,,,,,,,,,0053665926,,,,,,,
,18319,Adrian Maulana Yusuf,7A,L,2005-03-18,Banjarmasin,Komp. Citra Raya Angkasa,,Noor Syahida,Iyus,Wiraswasta,PNS/TNI/Polri,,,,,,,,,0051569542,,,,,,,
,18323,Akhmad Rabita Firdausi,7A,L,2006-02-12,TABALONG,JLN.A.YANI,,SITI MUJAHADAH,SAIFUL RAHMAN,PNS/TNI/Polri,Wiraswasta,,,,,,,,,0066712909,,,,,,,
,18324,Akhmad Raditya Sofyandika,7A,L,2005-12-17,BATULICIN,Jl Bromo,,NUR WENDAH,M.SOFYAN,PNS/TNI/Polri,PNS/TNI/Polri,,,,,,,,,0051381524,,,,,,,
,18326,Anwari Syaufi Ansyari,7A,L,2005-07-24,Kotabaru,Jl. Meranti No.32,,Musriatun,,,,,,,,,,,,0057808269,,,,,,,
,18327,Apriya Andika Pratama,7A,L,2006-04-07,TANAH LAUT,JL. RAYA BATU MULYA,,NIKMAH KHOIROTIK,SUNU JATMIKO,Lainnya,Karyawan Swasta,,,,,,,,,0068029493,,,,,,,
,18328,Arif Muhammad Ilham,7A,L,2006-01-03,BATULICIN,Jl. Transmigrasi RT 06 Ds. Barokah Kec. Simpang Empat Tanah Bumbu,,FATONAH,ASNAWI,,,,,,,,,,,0066739524,,,,,,,
,18329,Ariq Umar Ghazy,7A,L,2005-09-01,Banjarmasin,Jl. Golf Komp. Wengga 3 Blok A24,,Yanti Yunita,Mulyono,Karyawan Swasta,Karyawan Swasta,,,,,,,,,0054231601,,,,,,,
,18331,Bayu Priyatama,7A,L,2006-03-05,Banjarbaru,Jl. Kasturi I Gg. 3,,Rukmini,Ngatimin (alm),PNS/TNI/Polri,,,,,,,,,,0069207980,,,,,,,
,18332,Danu Rahmad Saputro,7A,L,2005-12-21,Tulungagung,"Jl. Ahmad Yani Km. 30,2",,"Ismiati, SE.",Muhammad Suparto,,PNS/TNI/Polri,,,,,,,,,0053098731,,,,,,,
,18335,Fadhil Ihsan Ramadhan,7A,L,2006-09-26,RANTAU,JL.BUPATI SAID ALWI,,RISDA,KASPIAN NUR RAJIBI,Tidak bekerja,PNS/TNI/Polri,,,,,,,,,0062429103,,,,,,,
,18336,Gusti Fauzan Mujahid,7A,L,2006-06-27,Tabalong,JL.Anggrek,,Darma Ninggsih,Gusti Orrin Prayudi Wardhana,PNS/TNI/Polri,Wirausaha,,,,,,,,,0062743019,,,,,,,
,18337,Haidar Ilham,7A,L,2005-10-18,Banjarbaru,Sapta Marga,,Puji Lestari,Mahmudin,Pedagang Kecil,Karyawan Swasta,,,,,,,,,0051890064,,,,,,,
,18338,Hasan Hidayat,7A,L,2006-02-11,Banjarmasin,Perum Darul Hijrah No. E6 Jl. Pondok Bambu,,Sulastri Indah Kartika,Tandu Orianto,Tidak bekerja,Wiraswasta,,,,,,,,,0063615738,,,,,,,
,18340,Ihya Rahmani Syahrin,7A,L,2005-10-11,BANJARBARU,JL. BINA MURNI NO. 42,,RAHMAWATI,ALFI SYAHRIN,PNS/TNI/Polri,PNS/TNI/Polri,,,,,,,,,0036224700,,,,,,,
,18343,Maulana Rizki Ilham Supriadi,7A,L,2006-03-29,Martapura,Jl. Veteran Gg. Barokah No.8,,Layla Ariati,Selamet Supriadi,PNS/TNI/Polri,PNS/TNI/Polri,,,,,,,,,0063092203,,,,,,,
,18347,Muhammad Adib Saputra,7A,L,2006-07-18,Hulu Sungai Selatan,Tambak Bitin,,KHAIRUNNISA,MURJANI YASIN,Lainnya,PNS/TNI/Polri,,,,,,,,,0067901986,,,,,,,
,18349,Muhammad Akbar,7A,L,2006-09-04,Muara Teweh,"Jl. Mistar Cokrokusumo, Bangkal",,Salamiyah,Muhammad Hamdi,Tidak bekerja,Petani,,,,,,,,,0066624637,,,,,,,
,18350,Muhammad Farhan Abdillah,7A,L,2006-05-28,MARTAPURA,Jl. Al Manar Gg. Muhajirin No.. 43 B Pelaihari,,KHAIRUNNAJMI,FAJRI HAIRANNOOR,,,,,,,,,,,0066624630,,,,,,,
,18351,Muhammad Farras Faqih Fiddin,7A,L,2006-06-08,Martapura,Jl. Kasturi,,Yuniar Handayani,Enu Bahtiar Setiawan,PNS/TNI/Polri,PNS/TNI/Polri,,,,,,,,,0068667855,,,,,,,
,18352,Muhammad Faza Athaya Ifriansyah,7A,L,2006-09-21,BANJARBARU,JL. TARUNA PRAJA RAYA KOMPLEK BALITAN 13 NO. 42,,FITRI AGUSTINA,UNTUNG IFRIANSYAH,Tidak bekerja,PNS/TNI/Polri,,,,,,,,,0069473200,,,,,,,
,18353,Muhammad Fikri Nur Hasani,7A,L,2005-09-17,TABALONG,"Jl. Penghulu Rosyid RT.7 Desa Purai, Banua Lawas Tabalong",,IDA MADRIANI,RUSPIANNOR,,,,,,,,,,,,,,,,,,
,18354,Muhammad Luthfi Noor,7A,L,2005-06-15,BANJARBARU,KOMP.CITRA BANGUN PERSADA,,H.NORHASANAH,MAHMUDIN,PNS/TNI/Polri,PNS/TNI/Polri,,,,,,,,,0052992618,,,,,,,
,18355,Muhammad Marshal Al-awali,7A,L,2006-04-04,Banjarbaru,Jl. Sapta Marga Blok.B No.1,,Lilis.R.M,Kanthi Prayitno,Karyawan Swasta,Karyawan Swasta,,,,,,,,,0061145321,,,,,,,
,18356,Muhammad Maulani Zain Maghribi,7A,L,2005-11-28,Martapura,Komplek Surya Indah 2 Blok I-5,,Kinta Ambarasti,Sukarman,PNS/TNI/Polri,PNS/TNI/Polri,,,,,,,,,0051216806,,,,,,,
,18357,Muhammad Raihan Radya Pasha,7A,L,2006-04-07,Banjarmasin,Jl. Karang Anyar 1,,Rima Aidina Laily,Rio Nugroho,PNS/TNI/Polri,Karyawan Swasta,,,,,,,,,0061437186,,,,,,,
,18358,Muhammad Ridho,7A,L,2006-03-04,BANJARMASIN,Jl. A. Yani Km. 1 Gg. 21` Rt. 01 Rw. 01 No. 36 ,,,SARIAN,,,,,,,,,,,,,,,,,,
,18359,Muhammad Rifky Hamdaini Akbar,7A,L,2005-04-06,SAMARINDA,"AW. Syahrani 4 Blok B No. 15 Rt.26 Sempaja Utara, Samarinda",,VERA SAFIRA THAMRIN,WASKITO TIKNO,,,,,,,,,,,,,,,,,,
,18360,Muhammad Rizky,7A,L,2004-06-30,BANJARMASIN,Jl. Adhyaksa Rt/Rw. 026/003 Kel. Sungai Miai Kec. Bjm Utarta 70123,,SUSILA KARTINI,RUSWANDI,,,,,,,,,,,0063531256,,,,,,,
,18361,Muhammad Rizky Auliandy Akbar Putra Hadi,7A,L,2006-05-26,Rantau Karau Hilir,BJB,,VENNY ELVINA RIDHA RAHMATUL JANNAH,DEDE NURHADI,Tidak bekerja,,,,,,,,,,0062408421,,,,,,,
,18362,Muhammad Rizqon,7A,L,2005-01-22,Banjarmasin,Jl. Sidomulyo II,,Istiani Kartika Sari,Joko Susanto,Wiraswasta,Wiraswasta,,,,,,,,,0051216772,,,,,,,
,18374,Satria Gilang Perkasa,7A,L,2007-12-20,GUNUNG MAS,Jln. Nyai Balau,,WAHIDAH,Hairulah,PNS/TNI/Polri,Wiraswasta,,,,,,,,,0079874184,,,,,,,
,18378,Yusranda Ghani Apriyanto,7A,L,2006-04-11,Banjarmasin,Komp. Wengga 3 Blok E No.50,,Umi Salamah,Supriyanto,Tidak bekerja,Karyawan Swasta,,,,,,,,,0068551652,,,,,,,
,18320,Afifah Afra,7B,P,2007-02-07,Balikpapan,Komp. Citra palam Permai,,Nur Sa'adah,Muhammad yusuf,Tidak bekerja,Karyawan Swasta,,,,,,,,,0074789337,,,,,,,
,18321,Afifah Shalehah,7B,P,2006-04-22,Banjarmasin,Ir. P.H.M Noor Komp. Sukamaju,,Darmila Ariyani,Fitriyanto,PNS/TNI/Polri,Karyawan Swasta,,,,,,,,,0063932631,,,,,,,
,18322,Aghniya Faiza Lathifa,7B,P,2006-06-16,Tapin,Jl. Hakim Samad RT.03 RW.II No.02,,"Leles Amita, S.Pd. I",,,,,,,,,,,,3061668761,,,,,,,
,18325,Alia Melly Genial,7B,P,2006-03-07,Palangkaraya,Komp Mustika Griya Permai,,Mala,MUHAMMAD JUNIOR,Lainnya,Wiraswasta,,,,,,,,,0066739524,,,,,,,
,18330,Athifah Shalehah,7B,P,2006-04-22,Banjarmasin,Ir. P.H.M.Noor Komp. Sukamaju,,Darmila Ariyani,Fitriyanto,PNS/TNI/Polri,Karyawan Swasta,,,,,,,,,0062290002,,,,,,,
,18334,Elda Zahara,7B,P,2006-04-19,Tangerang,Komp. Pondok Rawa Indah,,Hasnawati,Ahmad Ashari,Tidak bekerja,PNS/TNI/Polri,,,,,,,,,0063893429,,,,,,,
,18339,Hulwah Amorita Azzah,7B,P,2006-03-31,Polewali,Gg. Kediri RT. XVI No.20,,Nursyamsia,,,,,,,,,,,,3061372162,,,,,,,
,18341,Juwita,7B,P,2006-11-21,Berau,Jl. Transmigrasi KM. 03,,Wahyuni,Jamalluddin Noor,Karyawan Swasta,Karyawan Swasta,,,,,,,,,0065896314,,,,,,,
,18342,Khalisa Muthia Widodo,7B,P,2006-06-22,Banjarbaru,Komp. Mustika Graha Asri Jl. Mustika IX No.33,,Yuliarni,Catur Widodo,Tidak bekerja,Karyawan Swasta,,,,,,,,,0069721397,,,,,,,
,18344,Maitsa Syahidah Rachmat,7B,P,2006-05-04,Palangka Raya,Jl. Kapur & Naga II C No.16,,Desy Noordayanti,Heryadi,Tidak bekerja,PNS/TNI/Polri,,,,,,,,,0065050435,,,,,,,
,18345,Maulidiyah Munawaroh,7B,P,2006-06-08,Banjarbaru,Jl. Sapta Marga Blok E Komp. Sari Asih Permai,,Norhayatin,Sariadi,PNS/TNI/Polri,PNS/TNI/Polri,,,,,,,,,0061014110,,,,,,,
,18346,Monalisa,7B,P,2006-01-23,Kertak Hanyar,Jl. A. Yani Km.11 Asang Permai,,Hasnawati,Syaripudin,PNS/TNI/Polri,Karyawan Swasta,,,,,,,,,0069254409,,,,,,,
,18363,Muthia Zakiyya,7B,P,2006-02-18,Banjarmasin,Jl. A. Yani Km. 6 No. 105,,Hj. Siti Milian Sari,H. Irian Toni (almarhum),PNS/TNI/Polri,,,,,,,,,,0069738621,,,,,,,
,18364,Nabilah Atiqah Saroh,7B,P,2006-08-18,BANJARBARU,JL.SUKARELAWAN KOMP RUKO MERANTI OXYGEN A1,,RAHMIYENTI,HASRIANEF,Wirausaha,Wiraswasta,,,,,,,,,0063986498,,,,,,,
,18365,Nadhilah Nurshabrina Ramdhan,7B,P,2006-09-27,BANJARBARU,Jl.kARANG ANYAR KOMP.VILLA ANYAR,,NOOR EVI YANTI,MOCHAMAD RAMDHAN,Wirausaha,Wiraswasta,,,,,,,,,0056949236,,,,,,,
,18366,Najwa Adibah,7B,P,2007-01-07,Banjarmasin,Jalan Mantuil Permai No.31 A RT 01 RW 01,,Handayani,,,,,,,,,,,,0077823129,,,,,,,
,18367,Nayla Aamali Khumaira,7B,P,2005-12-28,Blitar,A. Yani Sukaresmi No. 54/210B,,Amalia Nurhayati,Supratikno,,Karyawan Swasta,,,,,,,,,0058952085,,,,,,,
,18368,Nazwa Ramadhani,7B,P,2004-10-28,Banjarmasin,Jl. A. Yani km.25,,Hidayah,Muzahid,,,,,,,,,,,0045858392,,,,,,,
,18369,Ni'matul Huda,7B,P,2006-03-05,Martapura,Jl. Taruna Praja,,Fatiyah,Ahmad Ghajali Rahman,Lainnya,Lainnya,,,,,,,,,0066701587,,,,,,,
,18370,Nida Nur Fitri,7B,P,2006-08-31,BATULICIN,Kupang,,NORITA,"Sugiharni, SP. MT",PNS/TNI/Polri,PNS/TNI/Polri,,,,,,,,,0065640037,,,,,,,
,18371,Nur'aini Sayyidatul Mufidah,7B,P,2006-07-01,Landasan Ulin,Komp. Citra Palem Permai Blok T No..19,,Umu Jariah,Wariyanto,Lainnya,Wiraswasta,,,,,,,,,0064012585,,,,,,,
,18372,Shabina Adzkia Khalisah,7B,P,2007-01-26,Banjarmasin,Komp. Anggrek Merah II,,Yulia Sari,Nor Efansyah,PNS/TNI/Polri,PNS/TNI/Polri,,,,,,,,,0074724686,,,,,,,
,18375,Siti Salsabila,7B,P,2006-10-06,Banjarmasin,Jl. Kuin Selatan No.11 Gg. Swarga,,Rusnani,Sanjoyu Ardi,PNS/TNI/Polri,Wiraswasta,,,,,,,,,0069725604,,,,,,,
,18376,Wiqdad Hidayahtul Maulida,7B,P,2005-04-22,Martapura,Komp. Mustika Griya asri,,Jumini Setyani,Zulkifli,,Karyawan Swasta,,,,,,,,,0054527636,,,,,,,
,18379,Zahra Rafida Permata Syafi'i,7B,P,2005-06-03,BANJARBARU,JL. MANGGIS,,IRA SUSANTI,IMAM SYAFI'I,Karyawan Swasta,Karyawan Swasta,,,,,,,,,0059316631,,,,,,,
,17267,Abdullah Zikri Wahid,8A,L,2005-05-29,Banjarbaru,Jl. Taruna Praja Raya Komp Balitan 13,,Istianah,Harley Dafidson Wahid,Karyawan Swasta,PNS/TNI/Polri,,,,,,,,,0051216783,,,,,,,
,17269,Ahmad Fajrin Adibayu,8A,L,2004-08-28,Banjarmasin,JL. BENUA ANYAR NO. 20,,Surnatiani,Syahrudin,Wiraswasta,Wiraswasta,,,,,,,,,0045795904,,,,,,,
,17270,Ahmad Farros Daffa Musyafa,8A,L,2004-06-14,Banjarmasin,Komp. Citra Raya Angkasa W22,,Siti Arifah,Tugiman,Wiraswasta,Karyawan Swasta,,,,,,,,,0045091385,,,,,,,
,17276,Athaya Rafi,8A,L,2005-06-20,Tanah Laut,Jl. Purnawirawan,,Sulasteri,Suraji,PNS/TNI/Polri,PNS/TNI/Polri,,,,,,,,,0050934469,,,,,,,
,17277,Dimas Surya Madina,8A,L,2004-08-22,Banjarmasin,Komp. Balitan I No.84,,Milawati Askari,Sudiono,Wiraswasta,Pensiunan,,,,,,,,,0045091394,,,,,,,
,17278,Ervyan Thufail Al-buchori Kana Erwin,8A,L,2005-03-30,MALANG,KOMPLEK MUSTIKA GRIYA PERMAI 1 BLOK C-8,,ERVYNA YULIANA SARI,ERWIN PRIAMJAYA,PNS/TNI/Polri,Wirausaha,,,,,,,,,0052904991,,,,,,,
,17280,Gusti Muhammad Zaki,8A,L,2005-11-04,Amuntai,Jl. Pondok Kelapa Blok U-13,,"Yenni Nurrahmi, SE.","Gusti Amrullah, ST.",PNS/TNI/Polri,Karyawan Swasta,,,,,,,,,0051216803,,,,,,,
,17284,Luthfi Hafizhputra Bernadian,8A,L,2005-03-15,Bandung,komp aulia raya no 26,,Yanti Kurniasari,berry bernandian,,,,,,,,,,,0055061964,,,,,,,
,17295,M. Khairi Fakhri,8A,L,2005-05-19,Banjarbaru,Jln. Kubis No. 87 ,,"Mira Yulianti, SP, Msi","Anwar Pauji, S.PI, Msi",PNS/TNI/Polri,PNS/TNI/Polri,,,,,,,,,0054946636,,,,,,,
,17298,M. Rizky Pratama,8A,L,2006-09-21,Tewah,Jln. Nyai Balau ,,Wahidah,Hairulah ,PNS/TNI/Polri,Wiraswasta,,,,,,,,,0061023754,,,,,,,
,17285,Muhammad Abdurrahman Haris,8A,L,2005-08-13,BANJARMASIN,TARJUN,,RAHMAWATI,ARDAMAYANSYAH,PNS/TNI/Polri,Karyawan Swasta,,,,,,,,,0052312506,,,,,,,
,17286,Muhammad Ali Ma'sum,8A,L,2005-08-10,Satui Timur,Gg.Rambutan Dusun III Desa Transmigrasi Satui Timur,,Fitrohatun.H,M.Syafi'i,PNS/TNI/Polri,Petani,,,,,,,,,0053291140,,,,,,,
,17287,Muhammad Alif Zaid Abror,8A,L,2005-04-08,Banjarbaru,Komp. Sinar Atu-atu,,Ratna Widiyaningsih,Aswin Hermawan,PNS/TNI/Polri,PNS/TNI/Polri,,,,,,,,,0057186836,,,,,,,
,17288,Muhammad Daffa Dzil Zidane Slucita Atmaja,8A,L,2004-08-08,Sampit,Jl. Karang Anyar 2 Komp. Pondok Papan Sejahtera,,Trivia Arimbati Slucita,Robby Suryaatmaja,Wiraswasta,Wiraswasta,,,,,,,,,0045091390,,,,,,,
,17291,Muhammad Hisyam Al-fathan,8A,L,2005-08-09,Palembang,Villa Gardena Blok A-21,,Rima Nursanti,Darmawil Syafwar,PNS/TNI/Polri,Karyawan Swasta,,,,,,,,,0051839841,,,,,,,
,17292,Muhammad Ikhsan Friendi,8A,L,2005-07-10,Banjarbaru,Jl. Cengkeh Komp. Mustika Karya,,Fitriyani,Netri Neldi,Tidak bekerja,Karyawan Swasta,,,,,,,,,0052797258,,,,,,,
,17294,Muhammad Ilham,8A,L,2005-05-28,Kandangan,Jl. Intan 13 Komp. Amaco,,Armaniah,Yuseran,Lainnya,Lainnya,,,,,,,,,0051216782,,,,,,,
,17296,Muhammad Nadir Appan,8A,L,2002-12-10,Martapura,Komp. Balitan XI  Jl. Pandu 2,,Noor Halisah,M. Rosadi,Tidak bekerja,Buruh,,,,,,,,,0020821649,,,,,,,
,17297,Muhammad Rasyid As Siddieq,8A,L,2004-08-10,Sei Tabuk,Jl. Barintik No.42,,"Ade Irmayanti, S.Pi","Fauzan Azima, S.Pi",Wirausaha,Wirausaha,,,,,,,,,0045091391,,,,,,,
,17299,Muhammad Zelizar Yarta,8A,L,2005-07-14,Banjarbaru,Komp. Villa Anyar no.7 Jl. Karang Anyar 1,,Mahrita,Sakhyar Zulnuzir (Alm),,,,,,,,,,,0057191019,,,,,,,
,17304,Nazril Ilham,8A,L,2005-08-31,Bandung,Jl. Karang Anyar 1 Pondok Empat,,Deti Arisanti,Arif Wibisono,,,,,,,,,,,0055252458,,,,,,,
,17313,Tajjamuddin Muhammad Akbar,8A,L,2003-09-02,Tanah Laut,Damit,,Muntika Sari Murni,Ismail,Petani,Petani,,,,,,,,,0038875192,,,,,,,
,17314,Taufik Hafizh,8A,L,2004-07-01,Banjarmasin,Jl. Brigjen H. Hasan Basri No.83E/85,,Dewi Lestari,Hairil Ifansyah,Karyawan Swasta,PNS/TNI/Polri,,,,,,,,,0049303877,,,,,,,
,17268,Adinda Dwi Rahayu,8B,P,2005-09-02,BANJARMASIN,KOMP CITRA RAYA ANGKASA BLOK R 22,,ANDRI ARIASTUTI,PRIYATNO,,Karyawan Swasta,,,,,,,,,0055437415,,,,,,,
,17271,Aisyah Humairah,8B,P,2005-06-17,KUTAI TIMUR,(tidak diisi),,EUUIS GOFUROH,PARYONO,PNS/TNI/Polri,Karyawan Swasta,,,,,,,,,0051774325,,,,,,,
,17272,Ajeng Pratiwi,8B,P,2005-08-27,Banjarmasin,Merak I Perumnas Lingkar Basirih No. 15 Rt. 12,,Agustina,Karyadi,Tidak bekerja,Wiraswasta,,,,,,,,,0052151277,,,,,,,
,17273,Alida Lutfia Ramadhani,8B,P,2005-10-27,Banjarbaru,Komp. Wirapratama I,,"Nur 'Aida, S.Pd.","Akhmad Syamsi, SE.",Lainnya,PNS/TNI/Polri,,,,,,,,,0051216801,,,,,,,
,17274,Amalia Ratu Nisa,8B,P,2004-10-15,Tanah Laut,Damit,,Muntika Ratu Nisa,Ismail,Petani,Petani,,,,,,,,,0041774574,,,,,,,
,17275,Andini Devita Sari,8B,P,2005-08-07,TABALONG,TANJUNG,,ELAWATI,M.SARIE,,,,,,,,,,,0056191660,,,,,,,
,17279,Fadilah Latifah,8B,P,2005-07-07,KOTABUMI,JL. SELEDRI NO. 69,,RAHMI,TAUFIK KURAHMAN,,Karyawan Swasta,,,,,,,,,0052731566,,,,,,,
,17281,Hasna Sadrina Agustin,8B,P,2004-08-18,Bandung,Komp. Balitan X Blok D No.31,,Nur Hidayah,Budi Raharjo,Tidak bekerja,PNS/TNI/Polri,,,,,,,,,0041707964,,,,,,,
,17282,Kayla Nazralia Fairuz,8B,P,2004-06-09,Amuntai,Asrama Polres,,Nur Azeria Rahmini,Doni Aman Doris,Tidak bekerja,PNS/TNI/Polri,,,,,,,,,0045915469,,,,,,,
,17283,Khadijah Al-kubro,8B,P,2005-01-01,Banjarbaru,Jl. Karang Anyar 2 Komp. Graha Intan Persada,,Noveratufianti,Mahmud,Lainnya,PNS/TNI/Polri,,,,,,,,,0058625430,,,,,,,
,17300,Munashafa Wulandari,8B,P,2004-05-20,Negara,Tambangan,,Dewi Karmila,H. Sabriansyah,Tidak bekerja,Wiraswasta,,,,,,,,,0042380749,,,,,,,
,17302,Nadhifa Salma Fiidina,8B,P,2005-08-10,Banjarbaru,Jl. Trikora Grand Tasbih,,Arni Pujiati,Syakur Rochman,Lainnya,Karyawan Swasta,,,,,,,,,0057363896,,,,,,,
,17301,Nadia Nafisa Rizky,8B,P,2005-06-01,Banjarmasin,Jl.Ratu Zaleha No.207 A,,Dewi Kumalasari SP,Awang Kusuma Wijaya SP,PNS/TNI/Polri,Karyawan Swasta,,,,,,,,,0052431807,,,,,,,
,17303,Najwa Ashfiya,8B,P,2005-08-03,Banjarbaru,Jl. Ikhsan Al Banjari Komp. Wirapratama 1 D-03,,Nana Rosalina,Hamsah Hindrat Jaya,PNS/TNI/Polri,PNS/TNI/Polri,,,,,,,,,0051216793,,,,,,,
,17305,Nida Rusyadah,8B,P,2004-10-05,Tapin,Jl. Penghulu,,"Khairun Fitri, S.Ag","Ahmad Subhan, S.Ag",PNS/TNI/Polri,PNS/TNI/Polri,,,,,,,,,0041709908,,,,,,,
,17306,Noor Latifah Azlina,8B,P,2003-12-05,GAMBUT,A. YANI KM.14 GG.KELUARGA,,NORLINA,MUHAMMAD MUSHAFFA,Tidak bekerja,Wiraswasta,,,,,,,,,0039882019,,,,,,,
,17307,Novia Alifah Mawardah,8B,P,2003-11-24,Tanah Bumbu,Komp. Citra Raya Angkasa,,Siti Rukoyah,Muhammad Luthfi,,,,,,,,,,,0042388694,,,,,,,
,17308,Nur Agna Nuzila,8B,P,2005-09-16,Martapura,Komp Kelapa Sawit,,Henny Marlina,Muhammad Hasbi,Lainnya,Karyawan Swasta,,,,,,,,,0051216796,,,,,,,
,17309,Prameswari Sekar Ayuningtyas,8B,P,2005-08-16,KOTABARU,Emplasment Sungai Cantung,,SARAH AGUSTINA,SUGENG WIDODO,Lainnya,Karyawan Swasta,,,,,,,,,0055630178,,,,,,,
,17310,Revalina Adelia Hermawan,8B,P,2004-10-08,BANJARMASIN,ASRAMA POLRES,,GUSTI DELIAN TUTI GURNASIH,A. DEDI HERMAWAN,PNS/TNI/Polri,PNS/TNI/Polri,,,,,,,,,0045155076,,,,,,,
,17311,Revina Jovia Putri,8B,P,2004-09-07,Padang,Komplek Mustika Karya,,Alvi,Joniendra,Tidak bekerja,Karyawan Swasta,,,,,,,,,0044852704,,,,,,,
,17312,Sabrina Aurelia Ramadani,8B,P,2004-10-30,Kandangan,Tambak Bitin,,Siti Zainab,Rusdiansyah,PNS/TNI/Polri,PNS/TNI/Polri,,,,,,,,,0042125286,,,,,,,
,17315,Tazkia Amira Sajida,8B,P,2005-10-05,martapura,citra persada indah,,jamilah agustini,alzah fiqri,Tidak bekerja,Karyawan Swasta,,,,,,,,,0052891059,,,,,,,
,17316,Yulianty,8B,P,2005-07-14,Hulu Sungai Utara,Jl.A.Yani,,Yuniarti,Syahrurrahman,Wiraswasta,Wiraswasta,,,,,,,,,0056941295,,,,,,,
,16201,Abdullah Fahmy,9A,L,2003-06-08,Batulicin,Jl Karang jawa GG Indra Mayu,,Siti Fuji Rahayu,Muhammad,Pedagang Kecil,Pedagang Kecil,,,,,,,,,0038570109,,,,,,,
,16204,Ahmad,9A,L,2004-04-19,BANJARBARU,Jl. Marjan N0. 3,,SITI BULKIS,WARDANI,,PNS/TNI/Polri,,,,,,,,,0045345877,,,,,,,
,16205,AHMAD CANDRA MULIA,9A,L,2004-06-30,ABUNG,DESA ABUNG,,"	RUSMILAWA",Sulhan,Wiraswasta,Wiraswasta,,,,,,,,,0041034863,,,,,,,
,16213,Arizal Nurhibatullah,9A,L,2004-01-03,PALANGKARAYA,Jl Trikora Blok. VII E No.20,,DIYAH PUSPITA SARI,SURIF,Lainnya,Pedagang Kecil,,,,,,,,,0047581802,,,,,,,
,16215,Bahrani,9A,L,2003-04-04,PANGKALANBUN,Jl. Sukma Arya Ningrat,,SARI WAHYUNI,BASIR,Tidak bekerja,Wiraswasta,,,,,,,,,0036789534,,,,,,,
,16216,Daffa Johandy Hafidz,9A,L,2003-11-22,BANJARMASIN,Jl. A. Yani Km. 15.800 Karang Anyar,,MARIATUL QIFTIAH,J. JOHANSYAH,Tidak bekerja,Wiraswasta,,,,,,,,,0057644002,,,,,,,
,16218,Fahrizal Arrahman,9A,L,2004-06-06,BANJARMASIN,Jl. BELDA Gg. Teuku Umar,,RAUDAH,MAHRANI ASID,,Wiraswasta,,,,,,,,,0045554825,,,,,,,
,16223,HADIID ABDURRAHMAN,9A,L,2004-08-12,TANAH LAUT,Jl. Perambaian,,NURMINI KHUZAIMAH,BUDIAN NOOR,,Karyawan Swasta,,,,,,,,,0045091392,,,,,,,
,16224,HAFIDH TRY SISWANTO,9A,L,2003-05-26,MARABAHAN,Jl. 9 Oktober Gg. Sei. Pahalau o. 8,,YAYUK SUPRIAWIDARTI,SUMARDI,PNS/TNI/Polri,Wiraswasta,,,,,,,,,0035805769,,,,,,,
,16226,Hasan Ali Murtadho,9A,L,2004-11-24,Banjarbaru,Jl.Mandiri Komplek Hercules Blok D/11,,Indari Susilowati,Rahmat Edy Maulana,,Wiraswasta,,,,,,,,,0043917510,,,,,,,
,16232,Muhammad Ali Akbar,9A,L,2004-08-26,PAGATAN,Jl. AYani Km. 31.500 Karang Rejo,,BASTIAH,H. Ahmad Hususi,Tidak bekerja,Wiraswasta,,,,,,,,,0041841676,,,,,,,
,16233,Muhammad Alif Ghozali,9A,L,2004-07-27,KUARO,Jl. Jendral Sudirman,,SUGIYANTI,TUMIRAN,,PNS/TNI/Polri,,,,,,,,,0046572503,,,,,,,
,16265,Muhammad Assidik,9A,L,2002-11-03,KOTABARU,P.K. NEGARA,,RUSMAWATI,RUSTAM,,Karyawan Swasta,,,,,,,,,0024751161,,,,,,,
,16236,Muhammad Azumashafa Ahsananditya,9A,L,2004-05-15,BANJARMASIN,Jl. Purnawirawan No.99,,SULISTYOWATI,DONI MAHENDRA,Tidak bekerja,Karyawan Swasta,,,,,,,,,0047271966,,,,,,,
,16237,Muhammad Dika Prayoga,9A,L,2003-10-13,BANJARMASIN,Komplek Sekummpul Indah II,,EKA FAHRINA,DEDY HERMAWAN,Tidak bekerja,Karyawan Swasta,,,,,,,,,0036901144,,,,,,,
,16239,Muhammad Haidir,9A,L,2003-10-15,MARTAPURA,Jl. Tanjung Rema Darat Gg. Pelita No.91,,ZAKIYAH,ALI NURDIN,,Buruh,,,,,,,,,0033025068,,,,,,,
,16240,Muhammad Haykal Kamil,9A,L,2003-10-24,MARTAPURA,Jl. Sriwijaya No. 13,,SINTHA YULIASARI,DODIH SAPUTRA,PNS/TNI/Polri,PNS/TNI/Polri,,,,,,,,,0033925844,,,,,,,
,16241,Muhammad Ikhwan,9A,L,2004-06-28,BANJARBARU,Komplek Balitan XI Jl. Pandu 3 No. 40,,ARBA'ATUN HURUM,Tri Tono Subagio,Tidak bekerja,PNS/TNI/Polri,,,,,,,,,0045091386,,,,,,,
,16242,Muhammad Khairun Fahmi,9A,L,2004-10-02,TABALONG,Jl. A.Yani Km 8,,MUZAINAH FITERI,Asikin,PNS/TNI/Polri,PNS/TNI/Polri,,,,,,,,,0041239473,,,,,,,
,16243,Muhammad Luthfi Asshiddiq,9A,L,2004-12-03,BANJARMASIN,Jl. Golf Komplek Wengga,,MUTIA FARIDA,NURJATIM,Tidak bekerja,Wiraswasta,,,,,,,,,0044496539,,,,,,,
,16244,Muhammad Noor Imani,9A,L,2004-01-01,BANJARMASIN,Jl. Sutoyo S. Komp. Hidayatullah,,KURNIAWATI,ACHMAD SORTASI,Tidak bekerja,Karyawan Swasta,,,,,,,,,0045606969,,,,,,,
,16245,Muhammad Rafly Azmi,9A,L,2004-05-31,CIREBON,Jl. GN Tangkuban Perahu D 13 No.40,,HERIAWATI,MUHAMMAD SOFIAN NOOR,Lainnya,Karyawan Swasta,,,,,,,,,0045230906,,,,,,,
,16246,Muhammad Reza Hikmal Akbar,9A,L,2003-12-23,Tanah Laut,H.M Sarbini,,Yeni Yusriana,Edy Seskowanto,PNS/TNI/Polri,PNS/TNI/Polri,,,,,,,,,0031280365,,,,,,,
,16247,Muhammad Ridha,9A,L,2003-11-22,Tapin,Desa Cindai Alus,,Helmah,Hasnan Basuki Rahmat,Tidak bekerja,Wiraswasta,,,,,,,,,0031917130,,,,,,,
,16248,Muhammad Rizkhan,9A,L,2003-06-20,Banjarmasin,Jl. Kelayan B Timur,,Siti Damsiah,Humaidi,Karyawan Swasta,Karyawan Swasta,,,,,,,,,0038638210,,,,,,,
,16249,MUHAMMAD SAJIDAN AL-GHIFARI,9A,L,2004-09-27,BANJARMASIN,Komp. Taman Citra Keraton Blok J No. 95,,DEWI MAYARANI,ARIANTO BUDI SUTRISNO,PNS/TNI/Polri,PNS/TNI/Polri,,,,,,,,,0041247309,,,,,,,
,16250,Muhammad Syaufi Arrazi,9A,L,2003-10-30,ABUNG,Desa Abung,,MASDIAH,HELMI,Petani,Wiraswasta,,,,,,,,,0035271614,,,,,,,
,16251,Muhammad Zakaria Nor Huda,9A,L,2004-02-28,DENPASAR,Ahmad Yani,,MASNAH,Haji Abdurachman,Wiraswasta,Wiraswasta,,,,,,,,,0041071041,,,,,,,
,16254,Nibras Ahmad Fayyadl,9A,L,2004-08-24,Bogor,Komp. Darul Hijrah Blok A6,,Rukmini,Sumaryo,Lainnya,Lainnya,,,,,,,,,0045091395,,,,,,,
,16263,Thoriq Ahmad Maulana,9A,L,2004-04-13,Banjarbaru,Jl.Dahlia No 29,,Lely Hartati,Hairy Hadi,PNS/TNI/Polri,PNS/TNI/Polri,,,,,,,,,0047093824,,,,,,,
,16264,Thoriq Khemal Ahmad,9A,L,2004-06-09,BANDUNG,Jl. Cempaka Blok C No. 16 Komp. Taman Asri,,TITIN KUSUMA DEWI,Ahmad Saiun,Lainnya,Karyawan Swasta,,,,,,,,,0049100010,,,,,,,
,16202,Adelia Rizqina Sadalia,9B,P,2004-09-29,TANAH LAUT,Jl Ahmad Yani Km. 50,,MARLINA,Mokhammad Ikhsan Sadalia,PNS/TNI/Polri,PNS/TNI/Polri,,,,,,,,,0044411238,,,,,,,
,16203,Afrilla Susanna Alfianty,9B,P,2004-04-15,TABALONG,Jl. Flamboyan Raya No. 17,,DIYAH SUSANA TRIASTUTI,ALFIAN,Lainnya,PNS/TNI/Polri,,,,,,,,,0042700626,,,,,,,
,16208,AINI ANISYAH,9B,P,2004-03-10,SLEMAN,Jl. Jeruk Pondok Limau No. 1,,BEKTI FITRI WAHYUNI,MUHAMMAD AKHIRINSYAH,Wiraswasta,Wiraswasta,,,,,,,,,0043070792,,,,,,,
,16209,Alya Amalia,9B,P,2004-01-25,PURUK CAHU,Merdeka No. 29,,RAHMA ARIFIAH,"Jamilul Ilmi, S.Hut",Tidak bekerja,PNS/TNI/Polri,,,,,,,,,0048704865,,,,,,,
,16210,Alya Ulil Albab,9B,P,2004-06-14,PANGKALANBUN,Jl. Pinus Rahayu Blok I No.58,,SUR ANISYAH,"JONI IRVANOR, S.Hut",Wiraswasta,Karyawan Swasta,,,,,,,,,0042183623,,,,,,,
,16211,Amelia Nur Lathifa,9B,P,2003-11-17,BANJARMASIN,Jl. Golf Komp. Wengga Jaya IV Blok B No. 58,,PURWATININGSIH,YULI MARDIANTO,Tidak bekerja,Karyawan Swasta,,,,,,,,,0035709488,,,,,,,
,16212,Anistia,9B,P,2003-04-22,Jakarta,Jl. Sukma Arya Ningrat,,HJ MULYANI,ERWANSYAH,Wirausaha,Wirausaha,,,,,,,,,0039480527,,,,,,,
,16214,Aulia Azizah,9B,P,2003-12-14,MARABAHAN,Jl. AES Nasution Komp. Indah Asri I,,SAMPONAH,BASUKI,Wirausaha,Petani,,,,,,,,,0035718970,,,,,,,
,16219,Fatimatuzzahro,9B,P,2004-07-03,BANJARMASIN,Jl. Seberang Mesjid,,SUPRIYATNI,HENDRA SUHENDRA,,PNS/TNI/Polri,,,,,,,,,0047672815,,,,,,,
,16220,Feby Adella,9B,P,2004-02-03,BANJARMASIN,Jl. Taurus No. 25 Komp. BCB,,SANTI LIANA,R. BAYU SURYANINGPRANG,,,,,,,,,,,0043892354,,,,,,,
,16221,Fillah Ittaqy Syamsi,9B,P,2004-09-18,LAMONGAN,Jl. Kebun Karet No. 24,,ELLEN MARTINA,YEDHA SANGA PUTRA,,Wiraswasta,,,,,,,,,0041004163,,,,,,,
,16222,Gusti Auna Khalisa,9B,P,2004-01-09,MARTAPURA,Jl. Kenanga Komplek GSR II Blok H No. 4,,MARIANI OLFAH,GUSTI AHMAD MUHIBBUDIN,Tidak bekerja,Wiraswasta,,,,,,,,,0042236030,,,,,,,
,16225,Hana Atsila Khansa,9B,P,2004-07-07,Banjarbaru,Jl. Perunggu No.2,,Rina Lestari,Hadi Siswanto,Wiraswasta,Wiraswasta,,,,,,,,,0048429620,,,,,,,
,16227,Hilwa Fi Ahsani Utammi,9B,P,2004-03-03,SUKABUMI,Jl. A.Yani,,MIRA CHANDRA EMIRAWATI,LUTHFI HIDAYAT,PNS/TNI/Polri,Wiraswasta,,,,,,,,,0046030911,,,,,,,
,16228,JUMIATI,9B,P,2003-04-08,HULU SUNGAI TENGAH,RANTAU KEMINTING,,FATMAH,SUBKI,Petani,Petani,,,,,,,,,0035194252,,,,,,,
,16229,Malva Liya Rizky Maulana,9B,P,2004-11-05,BANJARMASIN,Jl. Karang Anyar II Komp. Balitan II Blok Shabara II,,TRYANA DAMAYANTI,IWAN ARIS MAULANA,Wiraswasta,Wiraswasta,,,,,,,,,0042738335,,,,,,,
,16230,MELISA LOSITA,9B,P,2003-10-05,PONTIANAK,Jl. Raya Cancer No. 1 Komplek BCB,,SHINTA NUR,Muhammad Sukardi,Wiraswasta,Wiraswasta,,,,,,,,,0049306402,,,,,,,
,16231,Merieyam Magdalena,9B,P,2004-05-04,MARABAHAN,Jl Bastun No. 46,,NORSIDA,AL KAUSAR,Tidak bekerja,PNS/TNI/Polri,,,,,,,,,0046663756,,,,,,,
,16252,Nanda Syifa Ftria,9B,P,2004-03-24,BANJARMASIN,Komp. Citra Raya Angkasa Blok R. 22,,ANDRI ARIASTUTI,PRIYATNO,Tidak bekerja,Karyawan Swasta,,,,,,,,,0046198620,,,,,,,
,16255,Nisrina Nazhifah,9B,P,2004-04-19,KANDANGAN,Sungai Hanyar,,ERNAWATI,"Nasrullah, S.Pd",PNS/TNI/Polri,PNS/TNI/Polri,,,,,,,,,0046961108,,,,,,,
,16256,QATHRUNNADA SALSABIILA PUTRI,9B,P,2003-12-14,TANAH LAUT,Jl. Sarang Halang,,PRISKA YUNIARTI,RAMADHANI M.,Lainnya,PNS/TNI/Polri,,,,,,,,,0033367780,,,,,,,
,16257,Rachel Cici Angelica Rasmadi,9B,P,2003-11-27,KOTABARU,Jl. Peramuan Komp. Citra Bangun Persada Blok C 56,,FARIDA SAFITRI,RASMADI,,PNS/TNI/Polri,,,,,,,,,0036793210,,,,,,,
,16259,Ryna Salsabella Yasmin,9B,P,2004-08-31,PENGGALAMAN,Jl. A. Yani Km. 23,,RATNA DIANA,JUMHAIRIANSYAH,Lainnya,Karyawan Swasta,,,,,,,,,0045091396,,,,,,,
,16260,Salma Audina,9B,P,2004-03-28,BANJARBARU,Jl. Golf Swarealoka,,IFRIANI,SYAMSUDIN NUR,Lainnya,Karyawan Swasta,,,,,,,,,0043141858,,,,,,,
,16261,Suci Aminullah Putri,9B,P,2004-05-17,MARTAPURA,Jl. Barjad Podok Satria Jaya,,HAMIDAH NUR,AMINULLAH ZAIN,Wiraswasta,,,,,,,,,,0042797451,,,,,,,
,,,,,,,,,,,,,,,,,,,,,,,,,,,,
,,,,,,,,,,,,,,,,,,,,,,,,,,,,
,,,,,,,,,,,,,,,,,,,,,,,,,,,,
,,,,,,,,,,,,,,,,,,,,,,,,,,,,
,,,,,,,,,,,,,,,,,,,,,,,,,,,,
,,,,,,,,,,,,,,,,,,,,,,,,,,,,
,,,,,,,,,,,,,,,,,,,,,,,,,,,,
,,,,,,,,,,,,,,,,,,,,,,,,,,,,
,,,,,,,,,,,,,,,,,,,,,,,,,,,,
,,,,,,,,,,,,,,,,,,,,,,,,,,,,
,,,,,,,,,,,,,,,,,,,,,,,,,,,,
,,,,,,,,,,,,,,,,,,,,,,,,,,,,
,,,,,,,,,,,,,,,,,,,,,,,,,,,,
,,,,,,,,,,,,,,,,,,,,,,,,,,,,
,,,,,,,,,,,,,,,,,,,,,,,,,,,,
,,,,,,,,,,,,,,,,,,,,,,,,,,,,
,,,,,,,,,,,,,,,,,,,,,,,,,,,,
,,,,,,,,,,,,,,,,,,,,,,,,,,,,
,,,,,,,,,,,,,,,,,,,,,,,,,,,,
,,,,,,,,,,,,,,,,,,,,,,,,,,,,
,,,,,,,,,,,,,,,,,,,,,,,,,,,,
,,,,,,,,,,,,,,,,,,,,,,,,,,,,
,,,,,,,,,,,,,,,,,,,,,,,,,,,,
,,,,,,,,,,,,,,,,,,,,,,,,,,,,
,,,,,,,,,,,,,,,,,,,,,,,,,,,,
,,,,,,,,,,,,,,,,,,,,,,,,,,,,
,,,,,,,,,,,,,,,,,,,,,,,,,,,,
,,,,,,,,,,,,,,,,,,,,,,,,,,,,
,,,,,,,,,,,,,,,,,,,,,,,,,,,,
,,,,,,,,,,,,,,,,,,,,,,,,,,,,
,,,,,,,,,,,,,,,,,,,,,,,,,,,,
,,,,,,,,,,,,,,,,,,,,,,,,,,,,
,,,,,,,,,,,,,,,,,,,,,,,,,,,,
,,,,,,,,,,,,,,,,,,,,,,,,,,,,
,,,,,,,,,,,,,,,,,,,,,,,,,,,,
,,,,,,,,,,,,,,,,,,,,,,,,,,,,
,,,,,,,,,,,,,,,,,,,,,,,,,,,,
,,,,,,,,,,,,,,,,,,,,,,,,,,,,
,,,,,,,,,,,,,,,,,,,,,,,,,,,,
,,,,,,,,,,,,,,,,,,,,,,,,,,,,
,,,,,,,,,,,,,,,,,,,,,,,,,,,,
,,,,,,,,,,,,,,,,,,,,,,,,,,,,
,,,,,,,,,,,,,,,,,,,,,,,,,,,,
,,,,,,,,,,,,,,,,,,,,,,,,,,,,
,,,,,,,,,,,,,,,,,,,,,,,,,,,,
,,,,,,,,,,,,,,,,,,,,,,,,,,,,
,,,,,,,,,,,,,,,,,,,,,,,,,,,,
,,,,,,,,,,,,,,,,,,,,,,,,,,,,
,,,,,,,,,,,,,,,,,,,,,,,,,,,,
,,,,,,,,,,,,,,,,,,,,,,,,,,,,
,,,,,,,,,,,,,,,,,,,,,,,,,,,,
,,,,,,,,,,,,,,,,,,,,,,,,,,,,
,,,,,,,,,,,,,,,,,,,,,,,,,,,,
,,,,,,,,,,,,,,,,,,,,,,,,,,,,
,,,,,,,,,,,,,,,,,,,,,,,,,,,,
,,,,,,,,,,,,,,,,,,,,,,,,,,,,
,,,,,,,,,,,,,,,,,,,,,,,,,,,,
,,,,,,,,,,,,,,,,,,,,,,,,,,,,
,,,,,,,,,,,,,,,,,,,,,,,,,,,,
,,,,,,,,,,,,,,,,,,,,,,,,,,,,
,,,,,,,,,,,,,,,,,,,,,,,,,,,,
,,,,,,,,,,,,,,,,,,,,,,,,,,,,
,,,,,,,,,,,,,,,,,,,,,,,,,,,,
,,,,,,,,,,,,,,,,,,,,,,,,,,,,
,,,,,,,,,,,,,,,,,,,,,,,,,,,,
,,,,,,,,,,,,,,,,,,,,,,,,,,,,
,,,,,,,,,,,,,,,,,,,,,,,,,,,,
,,,,,,,,,,,,,,,,,,,,,,,,,,,,
,,,,,,,,,,,,,,,,,,,,,,,,,,,,
,,,,,,,,,,,,,,,,,,,,,,,,,,,,
,,,,,,,,,,,,,,,,,,,,,,,,,,,,
,,,,,,,,,,,,,,,,,,,,,,,,,,,,
,,,,,,,,,,,,,,,,,,,,,,,,,,,,
,,,,,,,,,,,,,,,,,,,,,,,,,,,,
,,,,,,,,,,,,,,,,,,,,,,,,,,,,
,,,,,,,,,,,,,,,,,,,,,,,,,,,,
,,,,,,,,,,,,,,,,,,,,,,,,,,,,
,,,,,,,,,,,,,,,,,,,,,,,,,,,,
,,,,,,,,,,,,,,,,,,,,,,,,,,,,
,,,,,,,,,,,,,,,,,,,,,,,,,,,,
,,,,,,,,,,,,,,,,,,,,,,,,,,,,
,,,,,,,,,,,,,,,,,,,,,,,,,,,,
,,,,,,,,,,,,,,,,,,,,,,,,,,,,
,,,,,,,,,,,,,,,,,,,,,,,,,,,,
,,,,,,,,,,,,,,,,,,,,,,,,,,,,
,,,,,,,,,,,,,,,,,,,,,,,,,,,,
,,,,,,,,,,,,,,,,,,,,,,,,,,,,
,,,,,,,,,,,,,,,,,,,,,,,,,,,,
,,,,,,,,,,,,,,,,,,,,,,,,,,,,
,,,,,,,,,,,,,,,,,,,,,,,,,,,,
,,,,,,,,,,,,,,,,,,,,,,,,,,,,
,,,,,,,,,,,,,,,,,,,,,,,,,,,,
,,,,,,,,,,,,,,,,,,,,,,,,,,,,
,,,,,,,,,,,,,,,,,,,,,,,,,,,,
,,,,,,,,,,,,,,,,,,,,,,,,,,,,
,,,,,,,,,,,,,,,,,,,,,,,,,,,,
,,,,,,,,,,,,,,,,,,,,,,,,,,,,
,,,,,,,,,,,,,,,,,,,,,,,,,,,,
,,,,,,,,,,,,,,,,,,,,,,,,,,,,
,,,,,,,,,,,,,,,,,,,,,,,,,,,,
,,,,,,,,,,,,,,,,,,,,,,,,,,,,
,,,,,,,,,,,,,,,,,,,,,,,,,,,,
,,,,,,,,,,,,,,,,,,,,,,,,,,,,
,,,,,,,,,,,,,,,,,,,,,,,,,,,,
,,,,,,,,,,,,,,,,,,,,,,,,,,,,
,,,,,,,,,,,,,,,,,,,,,,,,,,,,
,,,,,,,,,,,,,,,,,,,,,,,,,,,,
,,,,,,,,,,,,,,,,,,,,,,,,,,,,
,,,,,,,,,,,,,,,,,,,,,,,,,,,,
,,,,,,,,,,,,,,,,,,,,,,,,,,,,
,,,,,,,,,,,,,,,,,,,,,,,,,,,,
,,,,,,,,,,,,,,,,,,,,,,,,,,,,
,,,,,,,,,,,,,,,,,,,,,,,,,,,,
,,,,,,,,,,,,,,,,,,,,,,,,,,,,
,,,,,,,,,,,,,,,,,,,,,,,,,,,,
,,,,,,,,,,,,,,,,,,,,,,,,,,,,
,,,,,,,,,,,,,,,,,,,,,,,,,,,,
,,,,,,,,,,,,,,,,,,,,,,,,,,,,
,,,,,,,,,,,,,,,,,,,,,,,,,,,,
,,,,,,,,,,,,,,,,,,,,,,,,,,,,
,,,,,,,,,,,,,,,,,,,,,,,,,,,,
,,,,,,,,,,,,,,,,,,,,,,,,,,,,
,,,,,,,,,,,,,,,,,,,,,,,,,,,,
,,,,,,,,,,,,,,,,,,,,,,,,,,,,
,,,,,,,,,,,,,,,,,,,,,,,,,,,,
,,,,,,,,,,,,,,,,,,,,,,,,,,,,
,,,,,,,,,,,,,,,,,,,,,,,,,,,,
,,,,,,,,,,,,,,,,,,,,,,,,,,,,
,,,,,,,,,,,,,,,,,,,,,,,,,,,,
,,,,,,,,,,,,,,,,,,,,,,,,,,,,
,,,,,,,,,,,,,,,,,,,,,,,,,,,,
,,,,,,,,,,,,,,,,,,,,,,,,,,,,
,,,,,,,,,,,,,,,,,,,,,,,,,,,,
,,,,,,,,,,,,,,,,,,,,,,,,,,,,
,,,,,,,,,,,,,,,,,,,,,,,,,,,,
,,,,,,,,,,,,,,,,,,,,,,,,,,,,
,,,,,,,,,,,,,,,,,,,,,,,,,,,,
,,,,,,,,,,,,,,,,,,,,,,,,,,,,
,,,,,,,,,,,,,,,,,,,,,,,,,,,,
,,,,,,,,,,,,,,,,,,,,,,,,,,,,
,,,,,,,,,,,,,,,,,,,,,,,,,,,,
,,,,,,,,,,,,,,,,,,,,,,,,,,,,
,,,,,,,,,,,,,,,,,,,,,,,,,,,,
,,,,,,,,,,,,,,,,,,,,,,,,,,,,
,,,,,,,,,,,,,,,,,,,,,,,,,,,,
,,,,,,,,,,,,,,,,,,,,,,,,,,,,
,,,,,,,,,,,,,,,,,,,,,,,,,,,,
,,,,,,,,,,,,,,,,,,,,,,,,,,,,
,,,,,,,,,,,,,,,,,,,,,,,,,,,,
,,,,,,,,,,,,,,,,,,,,,,,,,,,,
,,,,,,,,,,,,,,,,,,,,,,,,,,,,
,,,,,,,,,,,,,,,,,,,,,,,,,,,,
,,,,,,,,,,,,,,,,,,,,,,,,,,,,
,,,,,,,,,,,,,,,,,,,,,,,,,,,,
,,,,,,,,,,,,,,,,,,,,,,,,,,,,
,,,,,,,,,,,,,,,,,,,,,,,,,,,,
,,,,,,,,,,,,,,,,,,,,,,,,,,,,
,,,,,,,,,,,,,,,,,,,,,,,,,,,,
,,,,,,,,,,,,,,,,,,,,,,,,,,,,
,,,,,,,,,,,,,,,,,,,,,,,,,,,,
,,,,,,,,,,,,,,,,,,,,,,,,,,,,
,,,,,,,,,,,,,,,,,,,,,,,,,,,,
,,,,,,,,,,,,,,,,,,,,,,,,,,,,
,,,,,,,,,,,,,,,,,,,,,,,,,,,,
,,,,,,,,,,,,,,,,,,,,,,,,,,,,
,,,,,,,,,,,,,,,,,,,,,,,,,,,,
,,,,,,,,,,,,,,,,,,,,,,,,,,,,
,,,,,,,,,,,,,,,,,,,,,,,,,,,,
,,,,,,,,,,,,,,,,,,,,,,,,,,,,
,,,,,,,,,,,,,,,,,,,,,,,,,,,,
,,,,,,,,,,,,,,,,,,,,,,,,,,,,
,,,,,,,,,,,,,,,,,,,,,,,,,,,,
,,,,,,,,,,,,,,,,,,,,,,,,,,,,
,,,,,,,,,,,,,,,,,,,,,,,,,,,,
,,,,,,,,,,,,,,,,,,,,,,,,,,,,
,,,,,,,,,,,,,,,,,,,,,,,,,,,,
,,,,,,,,,,,,,,,,,,,,,,,,,,,,
,,,,,,,,,,,,,,,,,,,,,,,,,,,,
,,,,,,,,,,,,,,,,,,,,,,,,,,,,
,,,,,,,,,,,,,,,,,,,,,,,,,,,,
,,,,,,,,,,,,,,,,,,,,,,,,,,,,
,,,,,,,,,,,,,,,,,,,,,,,,,,,,
,,,,,,,,,,,,,,,,,,,,,,,,,,,,
,,,,,,,,,,,,,,,,,,,,,,,,,,,,
,,,,,,,,,,,,,,,,,,,,,,,,,,,,
,,,,,,,,,,,,,,,,,,,,,,,,,,,,
,,,,,,,,,,,,,,,,,,,,,,,,,,,,
,,,,,,,,,,,,,,,,,,,,,,,,,,,,
,,,,,,,,,,,,,,,,,,,,,,,,,,,,
,,,,,,,,,,,,,,,,,,,,,,,,,,,,
,,,,,,,,,,,,,,,,,,,,,,,,,,,,
,,,,,,,,,,,,,,,,,,,,,,,,,,,,
,,,,,,,,,,,,,,,,,,,,,,,,,,,,
,,,,,,,,,,,,,,,,,,,,,,,,,,,,
,,,,,,,,,,,,,,,,,,,,,,,,,,,,
,,,,,,,,,,,,,,,,,,,,,,,,,,,,
,,,,,,,,,,,,,,,,,,,,,,,,,,,,
,,,,,,,,,,,,,,,,,,,,,,,,,,,,
,,,,,,,,,,,,,,,,,,,,,,,,,,,,
,,,,,,,,,,,,,,,,,,,,,,,,,,,,
,,,,,,,,,,,,,,,,,,,,,,,,,,,,
,,,,,,,,,,,,,,,,,,,,,,,,,,,,
,,,,,,,,,,,,,,,,,,,,,,,,,,,,
,,,,,,,,,,,,,,,,,,,,,,,,,,,,
,,,,,,,,,,,,,,,,,,,,,,,,,,,,
,,,,,,,,,,,,,,,,,,,,,,,,,,,,
,,,,,,,,,,,,,,,,,,,,,,,,,,,,
,,,,,,,,,,,,,,,,,,,,,,,,,,,,
,,,,,,,,,,,,,,,,,,,,,,,,,,,,
,,,,,,,,,,,,,,,,,,,,,,,,,,,,
,,,,,,,,,,,,,,,,,,,,,,,,,,,,
,,,,,,,,,,,,,,,,,,,,,,,,,,,,
,,,,,,,,,,,,,,,,,,,,,,,,,,,,
,,,,,,,,,,,,,,,,,,,,,,,,,,,,
,,,,,,,,,,,,,,,,,,,,,,,,,,,,
,,,,,,,,,,,,,,,,,,,,,,,,,,,,
,,,,,,,,,,,,,,,,,,,,,,,,,,,,
,,,,,,,,,,,,,,,,,,,,,,,,,,,,
,,,,,,,,,,,,,,,,,,,,,,,,,,,,
,,,,,,,,,,,,,,,,,,,,,,,,,,,,
,,,,,,,,,,,,,,,,,,,,,,,,,,,,
,,,,,,,,,,,,,,,,,,,,,,,,,,,,
,,,,,,,,,,,,,,,,,,,,,,,,,,,,
,,,,,,,,,,,,,,,,,,,,,,,,,,,,
,,,,,,,,,,,,,,,,,,,,,,,,,,,,
,,,,,,,,,,,,,,,,,,,,,,,,,,,,
,,,,,,,,,,,,,,,,,,,,,,,,,,,,
,,,,,,,,,,,,,,,,,,,,,,,,,,,,
,,,,,,,,,,,,,,,,,,,,,,,,,,,,
,,,,,,,,,,,,,,,,,,,,,,,,,,,,
,,,,,,,,,,,,,,,,,,,,,,,,,,,,
,,,,,,,,,,,,,,,,,,,,,,,,,,,,
,,,,,,,,,,,,,,,,,,,,,,,,,,,,
,,,,,,,,,,,,,,,,,,,,,,,,,,,,
,,,,,,,,,,,,,,,,,,,,,,,,,,,,
,,,,,,,,,,,,,,,,,,,,,,,,,,,,
,,,,,,,,,,,,,,,,,,,,,,,,,,,,
,,,,,,,,,,,,,,,,,,,,,,,,,,,,
,,,,,,,,,,,,,,,,,,,,,,,,,,,,
,,,,,,,,,,,,,,,,,,,,,,,,,,,,
,,,,,,,,,,,,,,,,,,,,,,,,,,,,
,,,,,,,,,,,,,,,,,,,,,,,,,,,,
,,,,,,,,,,,,,,,,,,,,,,,,,,,,
,,,,,,,,,,,,,,,,,,,,,,,,,,,,
,,,,,,,,,,,,,,,,,,,,,,,,,,,,
,,,,,,,,,,,,,,,,,,,,,,,,,,,,
,,,,,,,,,,,,,,,,,,,,,,,,,,,,
,,,,,,,,,,,,,,,,,,,,,,,,,,,,
,,,,,,,,,,,,,,,,,,,,,,,,,,,,
,,,,,,,,,,,,,,,,,,,,,,,,,,,,
,,,,,,,,,,,,,,,,,,,,,,,,,,,,
,,,,,,,,,,,,,,,,,,,,,,,,,,,,
,,,,,,,,,,,,,,,,,,,,,,,,,,,,
,,,,,,,,,,,,,,,,,,,,,,,,,,,,
,,,,,,,,,,,,,,,,,,,,,,,,,,,,
,,,,,,,,,,,,,,,,,,,,,,,,,,,,
,,,,,,,,,,,,,,,,,,,,,,,,,,,,
,,,,,,,,,,,,,,,,,,,,,,,,,,,,
,,,,,,,,,,,,,,,,,,,,,,,,,,,,
,,,,,,,,,,,,,,,,,,,,,,,,,,,,
,,,,,,,,,,,,,,,,,,,,,,,,,,,,
,,,,,,,,,,,,,,,,,,,,,,,,,,,,
,,,,,,,,,,,,,,,,,,,,,,,,,,,,
,,,,,,,,,,,,,,,,,,,,,,,,,,,,
,,,,,,,,,,,,,,,,,,,,,,,,,,,,
,,,,,,,,,,,,,,,,,,,,,,,,,,,,
,,,,,,,,,,,,,,,,,,,,,,,,,,,,
,,,,,,,,,,,,,,,,,,,,,,,,,,,,
,,,,,,,,,,,,,,,,,,,,,,,,,,,,
,,,,,,,,,,,,,,,,,,,,,,,,,,,,
,,,,,,,,,,,,,,,,,,,,,,,,,,,,
,,,,,,,,,,,,,,,,,,,,,,,,,,,,
,,,,,,,,,,,,,,,,,,,,,,,,,,,,
,,,,,,,,,,,,,,,,,,,,,,,,,,,,
,,,,,,,,,,,,,,,,,,,,,,,,,,,,
,,,,,,,,,,,,,,,,,,,,,,,,,,,,
,,,,,,,,,,,,,,,,,,,,,,,,,,,,
,,,,,,,,,,,,,,,,,,,,,,,,,,,,
,,,,,,,,,,,,,,,,,,,,,,,,,,,,
,,,,,,,,,,,,,,,,,,,,,,,,,,,,
,,,,,,,,,,,,,,,,,,,,,,,,,,,,
,,,,,,,,,,,,,,,,,,,,,,,,,,,,
,,,,,,,,,,,,,,,,,,,,,,,,,,,,
,,,,,,,,,,,,,,,,,,,,,,,,,,,,
,,,,,,,,,,,,,,,,,,,,,,,,,,,,
,,,,,,,,,,,,,,,,,,,,,,,,,,,,
,,,,,,,,,,,,,,,,,,,,,,,,,,,,
,,,,,,,,,,,,,,,,,,,,,,,,,,,,
,,,,,,,,,,,,,,,,,,,,,,,,,,,,
,,,,,,,,,,,,,,,,,,,,,,,,,,,,
,,,,,,,,,,,,,,,,,,,,,,,,,,,,
,,,,,,,,,,,,,,,,,,,,,,,,,,,,
,,,,,,,,,,,,,,,,,,,,,,,,,,,,
,,,,,,,,,,,,,,,,,,,,,,,,,,,,
,,,,,,,,,,,,,,,,,,,,,,,,,,,,
,,,,,,,,,,,,,,,,,,,,,,,,,,,,
,,,,,,,,,,,,,,,,,,,,,,,,,,,,
,,,,,,,,,,,,,,,,,,,,,,,,,,,,
,,,,,,,,,,,,,,,,,,,,,,,,,,,,
,,,,,,,,,,,,,,,,,,,,,,,,,,,,
,,,,,,,,,,,,,,,,,,,,,,,,,,,,
,,,,,,,,,,,,,,,,,,,,,,,,,,,,
,,,,,,,,,,,,,,,,,,,,,,,,,,,,
,,,,,,,,,,,,,,,,,,,,,,,,,,,,
,,,,,,,,,,,,,,,,,,,,,,,,,,,,
,,,,,,,,,,,,,,,,,,,,,,,,,,,,
,,,,,,,,,,,,,,,,,,,,,,,,,,,,
,,,,,,,,,,,,,,,,,,,,,,,,,,,,
,,,,,,,,,,,,,,,,,,,,,,,,,,,,
,,,,,,,,,,,,,,,,,,,,,,,,,,,,
,,,,,,,,,,,,,,,,,,,,,,,,,,,,
,,,,,,,,,,,,,,,,,,,,,,,,,,,,
,,,,,,,,,,,,,,,,,,,,,,,,,,,,
,,,,,,,,,,,,,,,,,,,,,,,,,,,,
,,,,,,,,,,,,,,,,,,,,,,,,,,,,
,,,,,,,,,,,,,,,,,,,,,,,,,,,,
,,,,,,,,,,,,,,,,,,,,,,,,,,,,
,,,,,,,,,,,,,,,,,,,,,,,,,,,,
,,,,,,,,,,,,,,,,,,,,,,,,,,,,
,,,,,,,,,,,,,,,,,,,,,,,,,,,,
,,,,,,,,,,,,,,,,,,,,,,,,,,,,
,,,,,,,,,,,,,,,,,,,,,,,,,,,,
,,,,,,,,,,,,,,,,,,,,,,,,,,,,
,,,,,,,,,,,,,,,,,,,,,,,,,,,,
,,,,,,,,,,,,,,,,,,,,,,,,,,,,
,,,,,,,,,,,,,,,,,,,,,,,,,,,,
,,,,,,,,,,,,,,,,,,,,,,,,,,,,
,,,,,,,,,,,,,,,,,,,,,,,,,,,,
,,,,,,,,,,,,,,,,,,,,,,,,,,,,
,,,,,,,,,,,,,,,,,,,,,,,,,,,,
,,,,,,,,,,,,,,,,,,,,,,,,,,,,
,,,,,,,,,,,,,,,,,,,,,,,,,,,,
,,,,,,,,,,,,,,,,,,,,,,,,,,,,
,,,,,,,,,,,,,,,,,,,,,,,,,,,,
,,,,,,,,,,,,,,,,,,,,,,,,,,,,
,,,,,,,,,,,,,,,,,,,,,,,,,,,,
,,,,,,,,,,,,,,,,,,,,,,,,,,,,
,,,,,,,,,,,,,,,,,,,,,,,,,,,,
,,,,,,,,,,,,,,,,,,,,,,,,,,,,
,,,,,,,,,,,,,,,,,,,,,,,,,,,,
,,,,,,,,,,,,,,,,,,,,,,,,,,,,
,,,,,,,,,,,,,,,,,,,,,,,,,,,,
,,,,,,,,,,,,,,,,,,,,,,,,,,,,
,,,,,,,,,,,,,,,,,,,,,,,,,,,,
,,,,,,,,,,,,,,,,,,,,,,,,,,,,
,,,,,,,,,,,,,,,,,,,,,,,,,,,,
,,,,,,,,,,,,,,,,,,,,,,,,,,,,
,,,,,,,,,,,,,,,,,,,,,,,,,,,,
,,,,,,,,,,,,,,,,,,,,,,,,,,,,
,,,,,,,,,,,,,,,,,,,,,,,,,,,,
,,,,,,,,,,,,,,,,,,,,,,,,,,,,
,,,,,,,,,,,,,,,,,,,,,,,,,,,,
,,,,,,,,,,,,,,,,,,,,,,,,,,,,
,,,,,,,,,,,,,,,,,,,,,,,,,,,,
,,,,,,,,,,,,,,,,,,,,,,,,,,,,
,,,,,,,,,,,,,,,,,,,,,,,,,,,,
,,,,,,,,,,,,,,,,,,,,,,,,,,,,
,,,,,,,,,,,,,,,,,,,,,,,,,,,,
,,,,,,,,,,,,,,,,,,,,,,,,,,,,
,,,,,,,,,,,,,,,,,,,,,,,,,,,,
,,,,,,,,,,,,,,,,,,,,,,,,,,,,
,,,,,,,,,,,,,,,,,,,,,,,,,,,,
,,,,,,,,,,,,,,,,,,,,,,,,,,,,
,,,,,,,,,,,,,,,,,,,,,,,,,,,,
,,,,,,,,,,,,,,,,,,,,,,,,,,,,
,,,,,,,,,,,,,,,,,,,,,,,,,,,,
,,,,,,,,,,,,,,,,,,,,,,,,,,,,
,,,,,,,,,,,,,,,,,,,,,,,,,,,,
,,,,,,,,,,,,,,,,,,,,,,,,,,,,
,,,,,,,,,,,,,,,,,,,,,,,,,,,,
,,,,,,,,,,,,,,,,,,,,,,,,,,,,
,,,,,,,,,,,,,,,,,,,,,,,,,,,,
,,,,,,,,,,,,,,,,,,,,,,,,,,,,
,,,,,,,,,,,,,,,,,,,,,,,,,,,,
,,,,,,,,,,,,,,,,,,,,,,,,,,,,
,,,,,,,,,,,,,,,,,,,,,,,,,,,,
,,,,,,,,,,,,,,,,,,,,,,,,,,,,
,,,,,,,,,,,,,,,,,,,,,,,,,,,,
,,,,,,,,,,,,,,,,,,,,,,,,,,,,
,,,,,,,,,,,,,,,,,,,,,,,,,,,,
,,,,,,,,,,,,,,,,,,,,,,,,,,,,
,,,,,,,,,,,,,,,,,,,,,,,,,,,,
,,,,,,,,,,,,,,,,,,,,,,,,,,,,
,,,,,,,,,,,,,,,,,,,,,,,,,,,,
,,,,,,,,,,,,,,,,,,,,,,,,,,,,
,,,,,,,,,,,,,,,,,,,,,,,,,,,,
,,,,,,,,,,,,,,,,,,,,,,,,,,,,
,,,,,,,,,,,,,,,,,,,,,,,,,,,,
,,,,,,,,,,,,,,,,,,,,,,,,,,,,
,,,,,,,,,,,,,,,,,,,,,,,,,,,,
